<?xml version="1.0" encoding="UTF-8"?>
<!DOCTYPE suite SYSTEM "http://testng.org/testng-1.0.dtd">
<suite configfailurepolicy="continue" thread-count="3" parallel="classes" name="Failed suite [Hugo]" guice-stage="DEVELOPMENT" verbose="0">
  <listeners>
    <listener class-name="Utilities.Listeners.TestListener"/>
    <listener class-name="Utilities.Listeners.AnnotationTransformer"/>
  </listeners>
  <test thread-count="3" parallel="classes" name="Tests.Candidates(failed)" verbose="0">
    <classes>
      <class name="Tests.Candidates.OldCandRegistration">
        <methods>
          <include name="old_cand_registration_smoke_1"/>
          <include name="teardown"/>
          <include name="setup"/>
          <include name="old_cand_registration_smoke" invocation-numbers="0"/>
        </methods>
      </class> <!-- Tests.Candidates.OldCandRegistration -->
    </classes>
  </test> <!-- Tests.Candidates(failed) -->
  <test thread-count="3" parallel="classes" name="Tests.Admin(failed)" verbose="0">
    <classes>
      <class name="Tests.Admin.AdminFirst">
        <methods>
          <include name="teardown"/>
          <include name="setup"/>
          <include name="admin2" invocation-numbers="0"/>
        </methods>
      </class> <!-- Tests.Admin.AdminFirst -->
    </classes>
  </test> <!-- Tests.Admin(failed) -->
</suite> <!-- Failed suite [Hugo] -->
