Pages\Admin\Login.class
Pages\Candidates\Marketing.class
Pages\Base.class
Pages\Candidates\ChooseUserType.class
Pages\Admin\Logout.class
Pages\Admin\Dashboard.class
Pages\Candidates\RegisterPositionInterests.class
Pages\Common.class
